No,Lokasi,Jenisdata,Jenissampel,Waktu,Kode,Temp,CO2,H2S,SO2,HCl,H2,N2,CH4,O2+Ar,NH3,HF,H2O
1,sikidang,sekunder,gas,11/1/1999,SK01,94.45,1.23,0.1,0.44,0.959,0.01,0.03,0.001,0,0,0,97.23
2,sikidang,sekunder,gas,7/1/2000,SK02,95.51,2,1.85,0,0.34,0.01,1.09,0,0.28,0,0,94.43
3,sikidang,sekunder,gas,8/1/2000,SK03,96.01,10.6,5.58,0,9.16,0.07,6.15,0,0.33,0,0,68.11
4,sikidang,sekunder,gas,11/1/2000,SK04,92.51,2.29,0.64,0,1.98,0.02,0.24,0,0.01,0,0,94.82
5,sikidang,sekunder,gas,6/1/2001,SK05,95.21,4.72,1.23,0.62,0.35,0.05,1.48,0,0.09,0,0,91.46
6,sikidang,sekunder,gas,7/1/2001,SK06,93.31,4.09,0.88,0,0.2,0.02,0.44,0,0.08,0,0,94.29
7,sikidang,sekunder,gas,6/1/2003,SK07,93.34,13.66,6.54,0,5.07,0.17,0.39,0.003,0,0.007,0,74.16
8,sikidang,sekunder,gas,7/1/2003,SK08,95.51,2,1.85,0,0.34,0.01,1.09,0,0.28,0,0,94.43
9,sikidang,sekunder,gas,8/1/2003,SK09,96.34,10.6,5.58,0,9.16,0.07,6.15,0,0.33,0,0,68.11
10,sikidang,sekunder,gas,4/1/2012,SK10,92.91,1.436,0.26,0.139,0.035,0,0.016,0.001,0,0.337,0,97.776
11,sikidang,primer,gas,1/1/2017,SK11,91.32,5.654,2.031,0,0.015,0.003,0.042,0.003,0.002,0.531,0,91.718
12,sikidang,primer,gas,1/1/2017,SK12,90.21,1.22,0.64,0,0.16,0,0.02,0,0,0.34,0,97.62
13,sikidang,primer,gas,1/1/2017,SK13,90.35,1.59,0.21,0.32,0.03,0,0.02,0,0,0.22,0,97.61
14,sikidang,primer,gas,2/1/2017,SK14,93.33,2.075,0.994,0.615,0.01,0.001,0.666,0.001,0.082,0.29,0.001,95.266
15,sikidang,primer,gas,2/1/2017,SK15,94.51,4.409,1.825,1.211,0.283,0.002,0.752,0.003,0.021,0.028,0.003,91.207
16,sikidang,primer,gas,2/1/2017,SK16,93.31,1.584,0.002,0.467,0.216,0,0.078,0.001,0.005,0.216,0,97.467
17,sikidang,primer,gas,10/1/2017,SK17,91.61,1.631,0.898,0.396,1.639,0.001,0.032,0.001,0,0.281,0.001,95.113
18,sikidang,primer,gas,10/1/2017,SK18,91.66,1.124,0.695,0.532,1.731,0.001,0.034,0.001,0,0.173,0,95.71
19,sikidang,primer,gas,10/1/2018,SK19,93.21,0.526,0.42,0.01,0,0.003,0.012,0,0,0,0.001,99.028
20,sikidang,primer,gas,7/1/2018,SK20,93.02,0.468,0.265,0.206,0.004,0.003,0.007,0,0,0.209,0.001,98.838
21,sikidang,primer,gas,7/1/2018,SK21,93.31,0.399,0.357,0.061,0.001,0.001,0.004,0,0,0,0.001,99.177
22,sikidang,primer,gas,7/1/2018,SK22,93.03,0.442,0.4,0,0.009,0,0.017,0,0,0,0,99.13
23,sibanteng,sekunder,gas,04-2012,SB01,94.21,1.236,0.465,0.289,0.011,0,0,0.001,0,0.559,0,97.423
24,sibanteng,sekunder,gas,04-2012,SB02,93.42,2.001,0.725,0.393,0.061,0,0,0.002,0,0.541,0,96.251
25,sibanteng,primer,gas,01-2017,SB03,90.11,2.608,1.053,0,0.091,0,0.03,0.002,0,0.692,0,95.501
26,sibanteng,primer,gas,01-2017,SB04,92.12,10.871,1.261,4.382,0,0,0,0,0.007,0.013,0,83.219
27,sibanteng,primer,gas,10-2017,SB05,93.3,1.736,0.243,0.449,0.011,0.001,0.145,0.001,0,1.049,0,96.366
28,sibanteng,primer,gas,10-2017,SB06,91.5,5.281,0,0,0.142,0,31.732,0,8.518,0.042,0,54.287
29,sibanteng,primer,gas,07-2018,SB07,91.1,3.343,0,0,0.075,0.003,19.791,0,4.855,0.109,0,71.825
30,sibanteng,primer,gas,07-2018,SB08,92.6,2.622,0.943,0.498,3.715,0.008,0.031,0.002,0,0.052,0,91.657
31,sikendang,primer,gas,01-2017,SD01,23,73.801,5.196,1.148,0.257,0.001,0.542,1.09,0.004,0,0,17.185
32,sikendang,primer,gas,10-2017,SD02,20.02,34.926,1.05,3.902,0.004,0,0.436,0.761,0.003,1.539,0,57.376
33,sikendang,primer,gas,07-2018,SD03,20.2,31.567,1.291,2.244,0.002,0,0.365,0.653,0.002,1.313,0,62.56
34,sileri,sekunder,gas,07-2013,SL01,81.5,50.061,0,0,0,0,6.981,6.876,0.785,0.046,35.249,0
35,sileri,sekunder,gas,07-2014,SL02,72.9,28.177,0,0,0.042,0,4.749,0.784,1.863,0.019,64.407,0
36,sileri,sekunder,gas,08-2014,SL03,73,56.013,0,0,0.124,0.174,0.709,1.03,0.015,0.003,41.933,0
37,sileri,sekunder,gas,10-2014,SL04,70.3,71.812,0,0.1,0,0,2.748,0.89,0.007,0.011,24.431,0
38,sileri,sekunder,gas,06-2015,SL05,72.7,57.14,0.09,1.54,0.01,10.78,3.22,0.78,0.01,0.21,26.22,0
39,pakuwaja,primer,gas,10-2017,PW01,91.5,10.47,0.147,0.574,0,0.003,0.087,0.17,0.001,0.061,0,88.487
40,pakuwaja,primer,gas,07-2018,PW02,92.1,16.026,0.159,0.876,0.001,0.004,0.13,0.252,0.003,0.136,0,82.411
